id;matricule;email;mot_de_passe;nom;prenom
1;Web Fresh Implementation;Enoch_Moore@hotmail.com;online;Mission Realigned Berkshire;analyzer CFA Franc BCEAO
2;synthesizing Tasty;Jesse.Larson@gmail.com;JBOD Missouri back-end;Fantastic;distributed
3;multi-tasking Pants Games;Lowell56@hotmail.com;24 hour JSON;Avon Human;invoice Refined Metal Tuna
4;mobile Avon;Antone20@hotmail.com;Awesome;quantifying Port;hub Compatible lavender
5;Argentine Peso local;Christ_Schaden@gmail.com;copy Republic of Korea bandwidth;Kids;Shirt calculate benchmark
6;Operations leading edge hacking;Maye55@hotmail.com;Avon quantifying Money Market Account;Gloves Checking Account Balanced;Circle paradigms
7;Small;Donato.Armstrong@gmail.com;connect Tools Customer-focused;Generic;Chief revolutionize ubiquitous
8;iterate Books;Levi.Mann@gmail.com;networks driver silver;Tools;reinvent
9;Rapid task-force Developer;Hugh.Bruen98@gmail.com;Dalasi bricks-and-clicks impactful;calculate;Wisconsin
10;solution-oriented Response Poland;Jairo.Cummings14@hotmail.com;Savings Account transmitting mindshare;North Carolina;Texas deploy payment
