{
  "name": "AgentBiblio",
  "fields": [
    {
      "fieldName": "matricule",
      "fieldType": "String",
      "fieldValidateRules": [
        "required",
        "unique"
      ]
    },
    {
      "fieldName": "email",
      "fieldType": "String",
      "fieldValidateRules": [
        "required"
      ]
    },
    {
      "fieldName": "motDePasse",
      "fieldType": "String",
      "fieldValidateRules": [
        "required"
      ]
    },
    {
      "fieldName": "nom",
      "fieldType": "String"
    },
    {
      "fieldName": "prenom",
      "fieldType": "String"
    }
  ],
  "relationships": [
    {
      "relationshipType": "one-to-one",
      "otherEntityName": "user",
      "otherEntityRelationshipName": "agentBiblio",
      "relationshipName": "user",
      "otherEntityField": "id",
      "ownerSide": true
    }
  ],
  "changelogDate": "20201205163002",
  "entityTableName": "agent_biblio",
  "dto": "no",
  "pagination": "no",
  "service": "no",
  "jpaMetamodelFiltering": false,
  "fluentMethods": true,
  "readOnly": false,
  "embedded": false,
  "clientRootFolder": "",
  "applications": "*"
}
